<svg xmlns="http://www.w3.org/2000/svg" xmlns:xlink="http://www.w3.org/1999/xlink" width="202" height="104" viewBox="0 0 202 104">
    <defs>
        <path id="pexio1oq4a" d="M0 .325v96.12c0 45.006 31.142 82.92 73.106 93.23v-20.18c0-.76 0-1.572.063-2.326 1.195-51.172 42.53-92.537 93.735-93.732.762-.063 1.573-.063 2.334-.063 7.11 0 14.093.749 20.762 2.264C180.437 32.575 141.99.325 96.126.325H0z"/>
        <path id="j00kab1d1b" d="M147.692 2.862C139.266.954 130.442 0 121.46 0c-.954 0-1.987 0-2.94.08C53.814 1.59 1.59 53.893.08 118.598c-.08.954-.08 1.987-.08 2.94V243h121.46C188.47 243 243 188.55 243 121.54c0-58.028-40.858-106.675-95.308-118.678"/>
    </defs>
    <g fill="none" fill-rule="evenodd">
        <g>
            <g>
                <g>
                    <g transform="translate(-173 -230) translate(-236) translate(378 230) matrix(-1 0 0 1 307.992 0)">
                        <use fill="#D0ECFB" xlink:href="#pexio1oq4a"/>
                    </g>
                    <g transform="translate(-173 -230) translate(-236) translate(378 230) translate(.992 63)">
                        <use fill="#B9E3F9" transform="matrix(-1 0 0 1 243 0)" xlink:href="#j00kab1d1b"/>
                    </g>
                </g>
            </g>
        </g>
    </g>
</svg>
